max.vcd
$version Generated by VerilatedVcd $end
$timescale 1ps $end
 $scope module TOP $end
  $scope module picorv32core $end
   $var wire 1 2 clk $end
   $var wire 1 3 rst $end
   $var wire 1 V mem_valid $end
   $var wire 1 W mem_instr $end
   $var wire 1 h" mem_ready $end
   $var wire 32 X mem_addr [31:0] $end
   $var wire 32 Y mem_wdata [31:0] $end
   $var wire 4 Z mem_wstrb [3:0] $end
   $var wire 32 i" mem_rdata [31:0] $end
   $var wire 1 y" mem_la_read $end
   $var wire 1 z" mem_la_write $end
   $var wire 32 [ mem_la_addr [31:0] $end
   $var wire 32 ## mem_la_wdata [31:0] $end
   $var wire 4 $# mem_la_wstrb [3:0] $end
   $var wire 1 /# resetn $end
   $scope module picorv32_core $end
    $var wire 1 4# ENABLE_COUNTERS [0:0] $end
    $var wire 1 4# ENABLE_COUNTERS64 [0:0] $end
    $var wire 1 4# ENABLE_REGS_16_31 [0:0] $end
    $var wire 1 4# ENABLE_REGS_DUALPORT [0:0] $end
    $var wire 1 5# LATCHED_MEM_RDATA [0:0] $end
    $var wire 1 4# TWO_STAGE_SHIFT [0:0] $end
    $var wire 1 5# BARREL_SHIFTER [0:0] $end
    $var wire 1 5# TWO_CYCLE_COMPARE [0:0] $end
    $var wire 1 5# TWO_CYCLE_ALU [0:0] $end
    $var wire 1 5# COMPRESSED_ISA [0:0] $end
    $var wire 1 4# CATCH_MISALIGN [0:0] $end
    $var wire 1 4# CATCH_ILLINSN [0:0] $end
    $var wire 1 5# ENABLE_PCPI [0:0] $end
    $var wire 1 5# ENABLE_MUL [0:0] $end
    $var wire 1 5# ENABLE_FAST_MUL [0:0] $end
    $var wire 1 5# ENABLE_DIV [0:0] $end
    $var wire 1 5# ENABLE_IRQ [0:0] $end
    $var wire 1 4# ENABLE_IRQ_QREGS [0:0] $end
    $var wire 1 4# ENABLE_IRQ_TIMER [0:0] $end
    $var wire 1 5# ENABLE_TRACE [0:0] $end
    $var wire 1 5# REGS_INIT_ZERO [0:0] $end
    $var wire 32 6# MASKED_IRQ [31:0] $end
    $var wire 32 7# LATCHED_IRQ [31:0] $end
    $var wire 32 6# PROGADDR_RESET [31:0] $end
    $var wire 32 8# PROGADDR_IRQ [31:0] $end
    $var wire 32 7# STACKADDR [31:0] $end
    $var wire 1 5 clk $end
    $var wire 1 1# resetn $end
    $var wire 1 ^ trap $end
    $var wire 1 _ mem_valid $end
    $var wire 1 ` mem_instr $end
    $var wire 1 n" mem_ready $end
    $var wire 32 a mem_addr [31:0] $end
    $var wire 32 b mem_wdata [31:0] $end
    $var wire 4 c mem_wstrb [3:0] $end
    $var wire 32 o" mem_rdata [31:0] $end
    $var wire 1 }" mem_la_read $end
    $var wire 1 ~" mem_la_write $end
    $var wire 32 d mem_la_addr [31:0] $end
    $var wire 32 '# mem_la_wdata [31:0] $end
    $var wire 4 (# mem_la_wstrb [3:0] $end
    $var wire 1 e pcpi_valid $end
    $var wire 32 f pcpi_insn [31:0] $end
    $var wire 32 g pcpi_rs1 [31:0] $end
    $var wire 32 h pcpi_rs2 [31:0] $end
    $var wire 1 9# pcpi_wr $end
    $var wire 32 :# pcpi_rd [31:0] $end
    $var wire 1 ;# pcpi_wait $end
    $var wire 1 <# pcpi_ready $end
    $var wire 32 =# irq [31:0] $end
    $var wire 32 i eoi [31:0] $end
    $var wire 1 j trace_valid $end
    $var wire 36 k trace_data [35:0] $end
    $var wire 32 ># irq_timer [31:0] $end
    $var wire 32 ?# irq_ebreak [31:0] $end
    $var wire 32 @# irq_buserror [31:0] $end
    $var wire 32 A# irqregs_offset [31:0] $end
    $var wire 32 A# regfile_size [31:0] $end
    $var wire 32 B# regindex_bits [31:0] $end
    $var wire 1 5# WITH_PCPI [0:0] $end
    $var wire 36 C# TRACE_BRANCH [35:0] $end
    $var wire 36 E# TRACE_ADDR [35:0] $end
    $var wire 36 G# TRACE_IRQ [35:0] $end
    $var wire 64 m count_cycle [63:0] $end
    $var wire 64 o count_instr [63:0] $end
    $var wire 32 q reg_pc [31:0] $end
    $var wire 32 r reg_next_pc [31:0] $end
    $var wire 32 s reg_op1 [31:0] $end
    $var wire 32 t reg_op2 [31:0] $end
    $var wire 32 u reg_out [31:0] $end
    $var wire 5 v reg_sh [4:0] $end
    $var wire 32 w next_insn_opcode [31:0] $end
    $var wire 32 x dbg_insn_opcode [31:0] $end
    $var wire 32 y dbg_insn_addr [31:0] $end
    $var wire 1 z dbg_mem_valid $end
    $var wire 1 { dbg_mem_instr $end
    $var wire 1 p" dbg_mem_ready $end
    $var wire 32 | dbg_mem_addr [31:0] $end
    $var wire 32 } dbg_mem_wdata [31:0] $end
    $var wire 4 ~ dbg_mem_wstrb [3:0] $end
    $var wire 32 q" dbg_mem_rdata [31:0] $end
    $var wire 32 !! next_pc [31:0] $end
    $var wire 1 "! irq_delay $end
    $var wire 1 #! irq_active $end
    $var wire 32 $! irq_mask [31:0] $end
    $var wire 32 %! irq_pending [31:0] $end
    $var wire 32 &! timer [31:0] $end
    $var wire 1 # pcpi_mul_wr $end
    $var wire 32 $ pcpi_mul_rd [31:0] $end
    $var wire 1 % pcpi_mul_wait $end
    $var wire 1 & pcpi_mul_ready $end
    $var wire 1 ' pcpi_div_wr $end
    $var wire 32 ( pcpi_div_rd [31:0] $end
    $var wire 1 ) pcpi_div_wait $end
    $var wire 1 * pcpi_div_ready $end
    $var wire 1 + pcpi_int_wr $end
    $var wire 32 , pcpi_int_rd [31:0] $end
    $var wire 1 - pcpi_int_wait $end
    $var wire 1 . pcpi_int_ready $end
    $var wire 2 '! mem_state [1:0] $end
    $var wire 2 (! mem_wordsize [1:0] $end
    $var wire 32 )# mem_rdata_word [31:0] $end
    $var wire 32 )! mem_rdata_q [31:0] $end
    $var wire 1 *! mem_do_prefetch $end
    $var wire 1 +! mem_do_rinst $end
    $var wire 1 ,! mem_do_rdata $end
    $var wire 1 -! mem_do_wdata $end
    $var wire 1 *# mem_xfer $end
    $var wire 1 .! mem_la_secondword $end
    $var wire 1 /! mem_la_firstword_reg $end
    $var wire 1 0! last_mem_valid $end
    $var wire 1 / mem_la_firstword $end
    $var wire 1 0 mem_la_firstword_xfer $end
    $var wire 1 1! prefetched_high_word $end
    $var wire 1 !# clear_prefetched_high_word $end
    $var wire 16 I# mem_16bit_buffer [15:0] $end
    $var wire 32 +# mem_rdata_latched_noshuffle [31:0] $end
    $var wire 32 ,# mem_rdata_latched [31:0] $end
    $var wire 1 1 mem_la_use_prefetched_high_word $end
    $var wire 1 2! mem_busy $end
    $var wire 1 2# mem_done $end
    $var wire 1 3! instr_lui $end
    $var wire 1 4! instr_auipc $end
    $var wire 1 5! instr_jal $end
    $var wire 1 6! instr_jalr $end
    $var wire 1 7! instr_beq $end
    $var wire 1 8! instr_bne $end
    $var wire 1 9! instr_blt $end
    $var wire 1 :! instr_bge $end
    $var wire 1 ;! instr_bltu $end
    $var wire 1 <! instr_bgeu $end
    $var wire 1 =! instr_lb $end
    $var wire 1 >! instr_lh $end
    $var wire 1 ?! instr_lw $end
    $var wire 1 @! instr_lbu $end
    $var wire 1 A! instr_lhu $end
    $var wire 1 B! instr_sb $end
    $var wire 1 C! instr_sh $end
    $var wire 1 D! instr_sw $end
    $var wire 1 E! instr_addi $end
    $var wire 1 F! instr_slti $end
    $var wire 1 G! instr_sltiu $end
    $var wire 1 H! instr_xori $end
    $var wire 1 I! instr_ori $end
    $var wire 1 J! instr_andi $end
    $var wire 1 K! instr_slli $end
    $var wire 1 L! instr_srli $end
    $var wire 1 M! instr_srai $end
    $var wire 1 N! instr_add $end
    $var wire 1 O! instr_sub $end
    $var wire 1 P! instr_sll $end
    $var wire 1 Q! instr_slt $end
    $var wire 1 R! instr_sltu $end
    $var wire 1 S! instr_xor $end
    $var wire 1 T! instr_srl $end
    $var wire 1 U! instr_sra $end
    $var wire 1 V! instr_or $end
    $var wire 1 W! instr_and $end
    $var wire 1 X! instr_rdcycle $end
    $var wire 1 Y! instr_rdcycleh $end
    $var wire 1 Z! instr_rdinstr $end
    $var wire 1 [! instr_rdinstrh $end
    $var wire 1 \! instr_ecall_ebreak $end
    $var wire 1 ]! instr_getq $end
    $var wire 1 ^! instr_setq $end
    $var wire 1 _! instr_retirq $end
    $var wire 1 `! instr_maskirq $end
    $var wire 1 a! instr_waitirq $end
    $var wire 1 b! instr_timer $end
    $var wire 1 c! instr_trap $end
    $var wire 5 d! decoded_rd [4:0] $end
    $var wire 5 e! decoded_rs1 [4:0] $end
    $var wire 5 f! decoded_rs2 [4:0] $end
    $var wire 32 g! decoded_imm [31:0] $end
    $var wire 32 h! decoded_imm_j [31:0] $end
    $var wire 1 i! decoder_trigger $end
    $var wire 1 j! decoder_trigger_q $end
    $var wire 1 k! decoder_pseudo_trigger $end
    $var wire 1 l! decoder_pseudo_trigger_q $end
    $var wire 1 m! compressed_instr $end
    $var wire 1 n! is_lui_auipc_jal $end
    $var wire 1 o! is_lb_lh_lw_lbu_lhu $end
    $var wire 1 p! is_slli_srli_srai $end
    $var wire 1 q! is_jalr_addi_slti_sltiu_xori_ori_andi $end
    $var wire 1 r! is_sb_sh_sw $end
    $var wire 1 s! is_sll_srl_sra $end
    $var wire 1 t! is_lui_auipc_jal_jalr_addi_add_sub $end
    $var wire 1 u! is_slti_blt_slt $end
    $var wire 1 v! is_sltiu_bltu_sltu $end
    $var wire 1 w! is_beq_bne_blt_bge_bltu_bgeu $end
    $var wire 1 x! is_lbu_lhu_lw $end
    $var wire 1 y! is_alu_reg_imm $end
    $var wire 1 z! is_alu_reg_reg $end
    $var wire 1 {! is_compare $end
    $var wire 1 |! is_rdcycle_rdcycleh_rdinstr_rdinstrh $end
    $var wire 64 }! new_ascii_instr [63:0] $end
    $var wire 64 !" dbg_ascii_instr [63:0] $end
    $var wire 32 #" dbg_insn_imm [31:0] $end
    $var wire 5 $" dbg_insn_rs1 [4:0] $end
    $var wire 5 %" dbg_insn_rs2 [4:0] $end
    $var wire 5 &" dbg_insn_rd [4:0] $end
    $var wire 32 '" dbg_rs1val [31:0] $end
    $var wire 32 (" dbg_rs2val [31:0] $end
    $var wire 1 )" dbg_rs1val_valid $end
    $var wire 1 *" dbg_rs2val_valid $end
    $var wire 64 +" q_ascii_instr [63:0] $end
    $var wire 32 -" q_insn_imm [31:0] $end
    $var wire 32 ." q_insn_opcode [31:0] $end
    $var wire 5 /" q_insn_rs1 [4:0] $end
    $var wire 5 0" q_insn_rs2 [4:0] $end
    $var wire 5 1" q_insn_rd [4:0] $end
    $var wire 1 2" dbg_next $end
    $var wire 1 3" launch_next_insn $end
    $var wire 1 4" dbg_valid_insn $end
    $var wire 64 5" cached_ascii_instr [63:0] $end
    $var wire 32 7" cached_insn_imm [31:0] $end
    $var wire 32 8" cached_insn_opcode [31:0] $end
    $var wire 5 9" cached_insn_rs1 [4:0] $end
    $var wire 5 :" cached_insn_rs2 [4:0] $end
    $var wire 5 ;" cached_insn_rd [4:0] $end
    $var wire 8 J# cpu_state_trap [7:0] $end
    $var wire 8 K# cpu_state_fetch [7:0] $end
    $var wire 8 L# cpu_state_ld_rs1 [7:0] $end
    $var wire 8 M# cpu_state_ld_rs2 [7:0] $end
    $var wire 8 N# cpu_state_exec [7:0] $end
    $var wire 8 O# cpu_state_shift [7:0] $end
    $var wire 8 P# cpu_state_stmem [7:0] $end
    $var wire 8 Q# cpu_state_ldmem [7:0] $end
    $var wire 8 <" cpu_state [7:0] $end
    $var wire 2 =" irq_state [1:0] $end
    $var wire 128 >" dbg_ascii_state [127:0] $end
    $var wire 1 B" set_mem_do_rinst $end
    $var wire 1 C" set_mem_do_rdata $end
    $var wire 1 D" set_mem_do_wdata $end
    $var wire 1 E" latched_store $end
    $var wire 1 F" latched_stalu $end
    $var wire 1 G" latched_branch $end
    $var wire 1 H" latched_compr $end
    $var wire 1 I" latched_trace $end
    $var wire 1 J" latched_is_lu $end
    $var wire 1 K" latched_is_lh $end
    $var wire 1 L" latched_is_lb $end
    $var wire 5 M" latched_rd [4:0] $end
    $var wire 32 N" current_pc [31:0] $end
    $var wire 4 R# pcpi_timeout_counter [3:0] $end
    $var wire 1 O" pcpi_timeout $end
    $var wire 32 P" next_irq_pending [31:0] $end
    $var wire 1 Q" do_waitirq $end
    $var wire 32 R" alu_out [31:0] $end
    $var wire 32 S" alu_out_q [31:0] $end
    $var wire 1 T" alu_out_0 $end
    $var wire 1 U" alu_out_0_q $end
    $var wire 1 V" alu_wait $end
    $var wire 1 W" alu_wait_2 $end
    $var wire 32 X" alu_add_sub [31:0] $end
    $var wire 32 Y" alu_shl [31:0] $end
    $var wire 32 Z" alu_shr [31:0] $end
    $var wire 1 [" alu_eq $end
    $var wire 1 \" alu_ltu $end
    $var wire 1 ]" alu_lts $end
    $var wire 1 ^" clear_prefetched_high_word_q $end
    $var wire 1 _" cpuregs_write $end
    $var wire 32 `" cpuregs_wrdata [31:0] $end
    $var wire 32 r" cpuregs_rs1 [31:0] $end
    $var wire 32 s" cpuregs_rs2 [31:0] $end
    $var wire 5 t" decoded_rs [4:0] $end
    $var wire 32 u" cpuregs_rdata1 [31:0] $end
    $var wire 32 v" cpuregs_rdata2 [31:0] $end
    $var wire 6 a" cpuregs_waddr [5:0] $end
    $var wire 6 b" cpuregs_raddr1 [5:0] $end
    $var wire 6 c" cpuregs_raddr2 [5:0] $end
    $scope module cpuregs $end
     $var wire 1 6 clk $end
     $var wire 1 "# wen $end
     $var wire 6 d" waddr [5:0] $end
     $var wire 6 e" raddr1 [5:0] $end
     $var wire 6 f" raddr2 [5:0] $end
     $var wire 32 g" wdata [31:0] $end
     $var wire 32 w" rdata1 [31:0] $end
     $var wire 32 x" rdata2 [31:0] $end
     $var wire 32 7 regs[0] [31:0] $end
     $var wire 32 8 regs[1] [31:0] $end
     $var wire 32 9 regs[2] [31:0] $end
     $var wire 32 : regs[3] [31:0] $end
     $var wire 32 ; regs[4] [31:0] $end
     $var wire 32 < regs[5] [31:0] $end
     $var wire 32 = regs[6] [31:0] $end
     $var wire 32 > regs[7] [31:0] $end
     $var wire 32 ? regs[8] [31:0] $end
     $var wire 32 @ regs[9] [31:0] $end
     $var wire 32 A regs[10] [31:0] $end
     $var wire 32 B regs[11] [31:0] $end
     $var wire 32 C regs[12] [31:0] $end
     $var wire 32 D regs[13] [31:0] $end
     $var wire 32 E regs[14] [31:0] $end
     $var wire 32 F regs[15] [31:0] $end
     $var wire 32 G regs[16] [31:0] $end
     $var wire 32 H regs[17] [31:0] $end
     $var wire 32 I regs[18] [31:0] $end
     $var wire 32 J regs[19] [31:0] $end
     $var wire 32 K regs[20] [31:0] $end
     $var wire 32 L regs[21] [31:0] $end
     $var wire 32 M regs[22] [31:0] $end
     $var wire 32 N regs[23] [31:0] $end
     $var wire 32 O regs[24] [31:0] $end
     $var wire 32 P regs[25] [31:0] $end
     $var wire 32 Q regs[26] [31:0] $end
     $var wire 32 R regs[27] [31:0] $end
     $var wire 32 S regs[28] [31:0] $end
     $var wire 32 T regs[29] [31:0] $end
     $var wire 32 U regs[30] [31:0] $end
    $upscope $end
   $upscope $end
   $scope module memory_modelling_inst $end
    $var wire 1 4 clk $end
    $var wire 4 %# mem_la_wstrb [3:0] $end
    $var wire 32 &# mem_la_wdata [31:0] $end
    $var wire 32 0# mem_la_addr [31:0] $end
    $var wire 1 {" mem_la_read $end
    $var wire 1 |" mem_la_write $end
    $var wire 1 \ mem_instr $end
    $var wire 1 ] mem_valid $end
    $var wire 1 j" mem_ready $end
    $var wire 32 k" mem_rdata [31:0] $end
    $var wire 32 3# file_handle [31:0] $end
    $var wire 32 l" mem_read__Vstatic__mem_rdata [31:0] $end
    $var wire 32 m" mem_write__Vstatic__m_addr [31:0] $end
   $upscope $end
  $upscope $end
  $var wire 1 -# clk $end
  $var wire 1 .# rst $end
 $upscope $end
$enddefinitions $end


#0
0#
b00000000000000000000000000000000 $
0%
0&
0'
b00000000000000000000000000000000 (
0)
0*
0+
b00000000000000000000000000000000 ,
0-
0.
0/
00
01
12
13
14
15
16
b00000000000000000000000000000000 7
b00000000000000000000000000000000 8
b00000000000000000000000000000000 9
b00000000000000000000000000000000 :
b00000000000000000000000000000000 ;
b00000000000000000000000000000000 <
b00000000000000000000000000000000 =
b00000000000000000000000000000000 >
b00000000000000000000000000000000 ?
b00000000000000000000000000000000 @
b00000000000000000000000000000000 A
b00000000000000000000000000000000 B
b00000000000000000000000000000000 C
b00000000000000000000000000000000 D
b00000000000000000000000000000000 E
b00000000000000000000000000000000 F
b00000000000000000000000000000000 G
b00000000000000000000000000000000 H
b00000000000000000000000000000000 I
b00000000000000000000000000000000 J
b00000000000000000000000000000000 K
b00000000000000000000000000000000 L
b00000000000000000000000000000000 M
b00000000000000000000000000000000 N
b00000000000000000000000000000000 O
b00000000000000000000000000000000 P
b00000000000000000000000000000000 Q
b00000000000000000000000000000000 R
b00000000000000000000000000000000 S
b00000000000000000000000000000000 T
b00000000000000000000000000000000 U
0V
0W
b00000000000000000000000000000000 X
b00000000000000000000000000000000 Y
b0000 Z
b00000000000000000000000000000000 [
0\
0]
0^
0_
0`
b00000000000000000000000000000000 a
b00000000000000000000000000000000 b
b0000 c
b00000000000000000000000000000000 d
0e
b00000000000000000000000000000000 f
b00000000000000000000000000000000 g
b00000000000000000000000000000000 h
b00000000000000000000000000000000 i
0j
b000000000000000000000000000000000000 k
b0000000000000000000000000000000000000000000000000000000000000000 m
b0000000000000000000000000000000000000000000000000000000000000000 o
b00000000000000000000000000000000 q
b00000000000000000000000000000000 r
b00000000000000000000000000000000 s
b00000000000000000000000000000000 t
b00000000000000000000000000000000 u
b00000 v
b00000000000000000000000000000000 w
b00000000000000000000000000000000 x
b00000000000000000000000000000000 y
0z
0{
b00000000000000000000000000000000 |
b00000000000000000000000000000000 }
b0000 ~
b00000000000000000000000000000000 !!
0"!
0#!
b11111111111111111111111111111111 $!
b00000000000000000000000000000000 %!
b00000000000000000000000000000000 &!
b00 '!
b00 (!
b00000000000000000000000000000000 )!
0*!
0+!
0,!
0-!
0.!
0/!
00!
01!
02!
03!
04!
05!
06!
07!
08!
09!
0:!
0;!
0<!
0=!
0>!
0?!
0@!
0A!
0B!
0C!
0D!
0E!
0F!
0G!
0H!
0I!
0J!
0K!
0L!
0M!
0N!
0O!
0P!
0Q!
0R!
0S!
0T!
0U!
0V!
0W!
0X!
0Y!
0Z!
0[!
0\!
0]!
0^!
0_!
0`!
0a!
0b!
1c!
b00000 d!
b00000 e!
b00000 f!
b00000000000000000000000000000000 g!
b00000000000000000000000000000000 h!
0i!
0j!
0k!
0l!
0m!
0n!
0o!
0p!
0q!
0r!
0s!
0t!
0u!
0v!
0w!
0x!
0y!
0z!
0{!
0|!
b0000000000000000000000000000000000000000000000000000000000000000 }!
b0000000000000000000000000000000000000000000000000000000000000000 !"
b00000000000000000000000000000000 #"
b00000 $"
b00000 %"
b00000 &"
b00000000000000000000000000000000 '"
b00000000000000000000000000000000 ("
0)"
0*"
b0000000000000000000000000000000000000000000000000000000000000000 +"
b00000000000000000000000000000000 -"
b00000000000000000000000000000000 ."
b00000 /"
b00000 0"
b00000 1"
02"
03"
04"
b0000000000000000000000000000000000000000000000000000000000000000 5"
b00000000000000000000000000000000 7"
b00000000000000000000000000000000 8"
b00000 9"
b00000 :"
b00000 ;"
b01000000 <"
b00 ="
b00000000000000000000000000000000000000000000000000000000000000000000000000000000000000000110011001100101011101000110001101101000 >"
0B"
0C"
0D"
0E"
0F"
0G"
0H"
0I"
0J"
0K"
0L"
b00000 M"
b00000000000000000000000000000000 N"
0O"
b00000000000000000000000000000000 P"
0Q"
b00000000000000000000000000000000 R"
b00000000000000000000000000000000 S"
0T"
0U"
0V"
0W"
b00000000000000000000000000000000 X"
b00000000000000000000000000000000 Y"
b00000000000000000000000000000000 Z"
1["
0\"
0]"
0^"
0_"
b00000000000000000000000000000000 `"
b000000 a"
b000000 b"
b000000 c"
b000000 d"
b000000 e"
b000000 f"
b00000000000000000000000000000000 g"
1h"
b00000000000000000000000000000000 i"
1j"
b00000000000000000000000000000000 k"
b00000000000000000000000000000000 l"
b00000000000000000000000000000000 m"
1n"
b00000000000000000000000000000000 o"
1p"
b00000000000000000000000000000000 q"
b00000000000000000000000000000000 r"
b00000000000000000000000000000000 s"
b00000 t"
b00000000000000000000000000000000 u"
b00000000000000000000000000000000 v"
b00000000000000000000000000000000 w"
b00000000000000000000000000000000 x"
0y"
0z"
0{"
0|"
0}"
0~"
0!#
0"#
b00000000000000000000000000000000 ##
b1111 $#
b1111 %#
b00000000000000000000000000000000 &#
b00000000000000000000000000000000 '#
b1111 (#
b00000000000000000000000000000000 )#
0*#
b00000000000000000000000000000000 +#
b00000000000000000000000000000000 ,#
1-#
1.#
1/#
b00000000000000000000000000000000 0#
11#
02#
b00000000000000000000000000000000 3#
14#
05#
b00000000000000000000000000000000 6#
b11111111111111111111111111111111 7#
b00000000000000000000000000010000 8#
09#
b00000000000000000000000000000000 :#
0;#
0<#
b00000000000000000000000000000000 =#
b00000000000000000000000000000000 >#
b00000000000000000000000000000001 ?#
b00000000000000000000000000000010 @#
b00000000000000000000000000100000 A#
b00000000000000000000000000000101 B#
b000100000000000000000000000000000000 C#
b001000000000000000000000000000000000 E#
b100000000000000000000000000000000000 G#
b0000000000000000 I#
b10000000 J#
b01000000 K#
b00100000 L#
b00010000 M#
b00001000 N#
b00000100 O#
b00000010 P#
b00000001 Q#
b0000 R#
#1
02
04
05
06
0-#
#2
12
14
15
16
b0000000000000000000000000000000000000000000000000000000000000001 m
1+!
12!
1y"
1{"
1}"
1-#
#3
02
04
05
06
0-#
#4
12
14
15
16
1V
1W
1\
1]
1_
1`
b0000000000000000000000000000000000000000000000000000000000000010 m
1z
1{
b01 '!
b00011011110101001010100100100011 i"
b00011011110101001010100100100011 k"
b00011011110101001010100100100011 l"
b00011011110101001010100100100011 o"
b00011011110101001010100100100011 q"
0y"
0{"
0}"
b00011011110101001010100100100011 )#
1*#
b00011011110101001010100100100011 +#
b00011011110101001010100100100011 ,#
1-#
12#
#5
02
04
05
06
0-#
#6
12
14
15
16
0V
0]
0_
b0000000000000000000000000000000000000000000000000000000000000011 m
b00011011110101001010100100100011 w
0z
b00 '!
b00011011110101001010100100100011 )!
0+!
02!
b10010 d!
b01001 e!
b11101 f!
b00000000000001001010100110111100 h!
1i!
1r!
13"
b001001 b"
b011101 c"
b001001 e"
b011101 f"
0*#
1-#
02#
#7
02
04
05
06
0-#
#8
12
14
15
16
b00000000000000000000000000000100 [
b00000000000000000000000000000100 d
b0000000000000000000000000000000000000000000000000000000000000100 m
b0000000000000000000000000000000000000000000000000000000000000001 o
b00000000000000000000000000000100 r
b00011011110101001010100100100011 x
b00000000000000000000000000000100 !!
1*!
12!
1D!
0c!
b00000000000000000000000110110010 g!
0i!
1j!
b0000000000000000000000000000000000000000000000000111001101110111 }!
b0000000000000000000000000000000000000000000000000111001101110111 !"
b00000000000000000000000110110010 #"
b01001 $"
b11101 %"
b10010 &"
12"
03"
14"
b00100000 <"
b00000000000000000000000000000000000000000000000000000000000000000000000000000000011011000110010001011111011100100111001100110001 >"
b10010 M"
b010010 a"
b010010 d"
1y"
1{"
1}"
1-#
b00000000000000000000000000000100 0#
#9
02
04
05
06
0-#
#10
12
14
15
16
1V
b00000000000000000000000000000100 X
1]
1_
b00000000000000000000000000000100 a
b0000000000000000000000000000000000000000000000000000000000000101 m
1z
b00000000000000000000000000000100 |
b01 '!
1+!
0j!
1)"
1*"
b0000000000000000000000000000000000000000000000000111001101110111 +"
b00000000000000000000000110110010 -"
b00011011110101001010100100100011 ."
b01001 /"
b11101 0"
b10010 1"
02"
b0000000000000000000000000000000000000000000000000111001101110111 5"
b00000000000000000000000110110010 7"
b00011011110101001010100100100011 8"
b01001 9"
b11101 :"
b10010 ;"
b00000010 <"
b00000000000000000000000000000000000000000000000000000000000000000000000000000000000000000111001101110100011011010110010101101101 >"
b11000001101111010010001110000011 i"
b11000001101111010010001110000011 k"
b11000001101111010010001110000011 l"
b11000001101111010010001110000011 o"
b11000001101111010010001110000011 q"
0y"
0{"
0}"
b11000001101111010010001110000011 )#
1*#
b11000001101111010010001110000011 +#
b11000001101111010010001110000011 ,#
1-#
12#
#11
02
04
05
06
0-#
#12
12
14
15
16
0V
b00000000000000000000000110110000 [
0]
0_
b00000000000000000000000110110000 d
b00000000000000000000000110110010 g
b0000000000000000000000000000000000000000000000000000000000000110 m
b00000000000000000000000110110010 s
b11000001101111010010001110000011 w
0z
b00 '!
b11000001101111010010001110000011 )!
0*!
0+!
1-!
b00111 d!
b11010 e!
b11011 f!
b11111111111111010010110000011010 h!
1i!
1o!
0r!
1D"
b00000000000000000000000110110010 X"
b00000000000000000000000110110010 Y"
b00000000000000000000000110110010 Z"
0["
b011010 b"
b011011 c"
b011010 e"
b011011 f"
1z"
1|"
1~"
0*#
1-#
b00000000000000000000000110110000 0#
02#
#13
02
04
05
06
0-#
#14
12
14
15
16
1V
0W
b00000000000000000000000110110000 X
b1111 Z
0\
1]
1_
0`
b00000000000000000000000110110000 a
b1111 c
b0000000000000000000000000000000000000000000000000000000000000111 m
1z
0{
b00000000000000000000000110110000 |
b1111 ~
b10 '!
1?!
0D!
b11111111111111111111110000011011 g!
0i!
1j!
b0000000000000000000000000000000000000000000000000110110001110111 }!
b10000000 <"
b00000000000000000000000000000000000000000000000000000000000000000000000000000000000000000000000001110100011100100110000101110000 >"
0D"
b00000000000000000000000001101100 m"
0z"
0|"
0~"
1*#
1-#
12#
#15
02
04
05
06
0-#
#16
12
14
15
16
0V
0]
1^
0_
b0000000000000000000000000000000000000000000000000000000000001000 m
0z
b00 '!
0-!
02!
0j!
1x!
b0000000000000000000000000000000000000000000000000110110001110111 5"
b11111111111111111111110000011011 7"
b11000001101111010010001110000011 8"
b11010 9"
b11011 :"
b00111 ;"
0*#
1-#
02#
#17
02
04
05
06
0-#
#18
12
14
15
16
b0000000000000000000000000000000000000000000000000000000000001001 m
04"
1-#
#19
02
04
05
06
0-#
#20
12
14
15
16
b0000000000000000000000000000000000000000000000000000000000001010 m
1-#
#21
02
04
05
06
0-#
#22
12
14
15
16
b0000000000000000000000000000000000000000000000000000000000001011 m
1-#
#23
02
04
05
06
0-#
#24
12
14
15
16
b0000000000000000000000000000000000000000000000000000000000001100 m
1-#
#25
02
04
05
06
0-#
#26
12
14
15
16
b0000000000000000000000000000000000000000000000000000000000001101 m
1-#
#27
02
04
05
06
0-#
#28
12
14
15
16
b0000000000000000000000000000000000000000000000000000000000001110 m
1-#
#29
02
04
05
06
0-#
#30
12
14
15
16
b0000000000000000000000000000000000000000000000000000000000001111 m
1-#
#31
02
04
05
06
0-#
#32
12
14
15
16
b0000000000000000000000000000000000000000000000000000000000010000 m
1-#
#33
02
04
05
06
0-#
#34
12
14
15
16
b0000000000000000000000000000000000000000000000000000000000010001 m
1-#
#35
02
04
05
06
0-#
#36
12
14
15
16
b0000000000000000000000000000000000000000000000000000000000010010 m
1-#
#37
02
04
05
06
0-#
#38
12
14
15
16
b0000000000000000000000000000000000000000000000000000000000010011 m
1-#
#39
02
04
05
06
0-#
#40
12
14
15
16
b0000000000000000000000000000000000000000000000000000000000010100 m
1-#
#41
02
04
05
06
0-#
#42
12
14
15
16
b0000000000000000000000000000000000000000000000000000000000010101 m
1-#
#43
02
04
05
06
0-#
#44
12
14
15
16
b0000000000000000000000000000000000000000000000000000000000010110 m
1-#
#45
02
04
05
06
0-#
#46
12
14
15
16
b0000000000000000000000000000000000000000000000000000000000010111 m
1-#
#47
02
04
05
06
0-#
#48
12
14
15
16
b0000000000000000000000000000000000000000000000000000000000011000 m
1-#
#49
02
04
05
06
0-#
#50
12
14
15
16
b0000000000000000000000000000000000000000000000000000000000011001 m
1-#
#51
02
04
05
06
0-#
#52
12
14
15
16
b0000000000000000000000000000000000000000000000000000000000011010 m
1-#
#53
02
04
05
06
0-#
#54
12
14
15
16
b0000000000000000000000000000000000000000000000000000000000011011 m
1-#
#55
02
04
05
06
0-#
#56
12
14
15
16
b0000000000000000000000000000000000000000000000000000000000011100 m
1-#
#57
02
04
05
06
0-#
#58
12
14
15
16
b0000000000000000000000000000000000000000000000000000000000011101 m
1-#
#59
02
04
05
06
0-#
#60
12
14
15
16
b0000000000000000000000000000000000000000000000000000000000011110 m
1-#
#61
02
04
05
06
0-#
#62
12
14
15
16
b0000000000000000000000000000000000000000000000000000000000011111 m
1-#
#63
02
04
05
06
0-#
#64
12
14
15
16
b0000000000000000000000000000000000000000000000000000000000100000 m
1-#
#65
02
04
05
06
0-#
#66
12
14
15
16
b0000000000000000000000000000000000000000000000000000000000100001 m
1-#
#67
02
04
05
06
0-#
#68
12
14
15
16
b0000000000000000000000000000000000000000000000000000000000100010 m
1-#
#69
02
04
05
06
0-#
#70
12
14
15
16
b0000000000000000000000000000000000000000000000000000000000100011 m
1-#
#71
02
04
05
06
0-#
#72
12
14
15
16
b0000000000000000000000000000000000000000000000000000000000100100 m
1-#
#73
02
04
05
06
0-#
#74
12
14
15
16
b0000000000000000000000000000000000000000000000000000000000100101 m
1-#
#75
02
04
05
06
0-#
#76
12
14
15
16
b0000000000000000000000000000000000000000000000000000000000100110 m
1-#
#77
02
04
05
06
0-#
#78
12
14
15
16
b0000000000000000000000000000000000000000000000000000000000100111 m
1-#
#79
02
04
05
06
0-#
#80
12
14
15
16
b0000000000000000000000000000000000000000000000000000000000101000 m
1-#
#81
02
04
05
06
0-#
#82
12
14
15
16
b0000000000000000000000000000000000000000000000000000000000101001 m
1-#
#83
02
04
05
06
0-#
#84
12
14
15
16
b0000000000000000000000000000000000000000000000000000000000101010 m
1-#
#85
02
04
05
06
0-#
